<?xml version="1.0" encoding="utf-8"?>
<!-- Generator: Adobe Illustrator 22.1.0, SVG Export Plug-In . SVG Version: 6.00 Build 0)  -->
<svg version="1.1" id="the" xmlns="http://www.w3.org/2000/svg" xmlns:xlink="http://www.w3.org/1999/xlink" x="0px" y="0px"
	 viewBox="0 0 262 66" style="enable-background:new 0 0 262 66;" xml:space="preserve">
<style type="text/css">
	.st0{fill:#FFFFFF;}
</style>
<g>
	<path class="st0" d="M85.5,6.9c-0.1,0.6-0.4,1.6-0.9,2.9c-0.5,1.3-1.2,2.9-2,4.7c-0.8,1.8-1.8,3.8-2.9,6c-1.1,2.2-2.3,4.4-3.5,6.8
		s-2.6,4.7-3.9,7.1c-1.3,2.4-2.7,4.7-4,6.9c-2.2,3.7-4.4,7.1-6.5,10.2s-4,5.6-5.8,7.7c0.2,0.4,0.4,0.9,0.4,1.3
		c0,0.7-0.3,1.3-0.9,1.8s-1.3,1-2.3,1.3s-2,0.6-3.2,0.8c-1.2,0.2-2.4,0.3-3.7,0.3c-1,0-1.7-0.2-2.2-0.7c-0.5-0.4-0.7-1-0.7-1.7
		c0-0.8,0.2-1.5,0.6-2.1s0.9-0.9,1.5-1.2c-0.1-0.6-0.2-1.6-0.4-2.8c-0.2-1.3-0.4-2.7-0.7-4.4c-0.2-1.6-0.5-3.4-0.8-5.3
		c-0.3-1.9-0.5-3.8-0.8-5.8c-0.2-1.9-0.5-3.9-0.7-5.7c-0.2-1.9-0.4-3.6-0.4-5.1c-0.2-2.2-0.3-4.2-0.4-6.1C41.1,22,41,20.2,41,18.4
		c0-1.6,0-3.1,0.1-4.5c0.1-1.4,0.2-2.6,0.4-3.6c0.2-1.1,0.5-2.1,1.1-3.1c0.6-1,1.2-1.9,2-2.7c0.8-0.8,1.6-1.4,2.5-1.9
		C48,2.2,48.9,2,49.7,2c1,0,1.7,0.4,2.1,1.2c0.4,0.8,0.6,2,0.6,3.5c0,1-0.1,2-0.2,3.3c-0.2,1.2-0.3,2.4-0.5,3.4
		c-0.2,1.1-0.3,2.1-0.4,2.8l-0.2,1c-0.1,0.5-0.2,1.2-0.2,1.9c0,0.7,0,1.6,0,2.5c0,1.9,0.1,4.1,0.2,6.6c0.1,2.5,0.3,5,0.6,7.6
		c0.2,2.6,0.5,5.1,0.8,7.6c0.3,2.5,0.6,4.6,1,6.5c2.1-2.7,4.2-5.7,6.3-9.1c2.1-3.4,4.1-6.9,5.9-10.5c1.5-3,3-6.1,4.5-9.3
		c1.5-3.2,3-6.3,4.5-9.3C77.4,6.6,79.9,4,82.2,4c1,0,1.8,0.2,2.4,0.4c0.6,0.3,0.9,0.9,0.9,1.8C85.5,6.5,85.5,6.7,85.5,6.9z"/>
	<path class="st0" d="M80.6,39.1c0.4-0.7,0.9-1.1,1.4-1.4c0.5-0.3,1-0.4,1.6-0.4c0.9,0,1.7,0.3,2.3,0.9c0.6,0.6,1,1.3,1,2.2
		c0,0.2-0.1,0.4-0.1,0.6s-0.1,0.4-0.2,0.6c-0.3,0.6-0.6,1.1-0.8,1.5s-0.4,0.8-0.6,1.2c-0.2,0.4-0.3,0.7-0.5,1.1
		c-0.2,0.4-0.4,0.8-0.6,1.3c-0.3,0.6-0.6,1.2-0.9,1.9c-0.4,0.7-0.7,1.4-1,2.1c-0.3,0.7-0.6,1.4-0.8,2.1c-0.2,0.7-0.3,1.3-0.3,1.9
		c0,0.6,0.2,1,0.5,1.2c0.3,0.2,0.8,0.3,1.4,0.3c0.7,0,1.3-0.1,2.1-0.4c0.7-0.3,1.4-0.6,2.2-1.1c0.7-0.4,1.4-1,2.1-1.5
		c0.7-0.6,1.4-1.2,2-1.7c0.6-0.6,1.2-1.1,1.7-1.7c0.5-0.5,1-1,1.3-1.4c0.5-0.4,0.9-0.7,1.4-0.7c0.4,0,0.8,0.2,1,0.6
		c0.3,0.4,0.4,0.9,0.4,1.4c0,0.5-0.1,1.1-0.4,1.7c-0.3,0.6-0.7,1.2-1.3,1.7c-1.2,1.2-2.4,2.4-3.7,3.5c-1.2,1.1-2.5,2.1-3.8,3
		c-1.3,0.9-2.6,1.5-3.9,2.1c-1.3,0.5-2.6,0.8-4,0.8c-1.9,0-3.4-0.5-4.5-1.5s-1.6-2.5-1.6-4.6c0-1.1,0.2-2.1,0.5-3.2
		c0.3-1,0.7-2,1.1-3c0.4-1,0.9-1.9,1.3-2.8c0.5-0.9,0.9-1.8,1.2-2.6c0.1-0.3,0.3-0.8,0.6-1.4c0.3-0.6,0.6-1.3,0.9-1.9
		C79.8,40.8,80.2,40,80.6,39.1z M84.5,31.2c0-0.5,0.1-1.1,0.3-1.7c0.2-0.6,0.5-1.1,0.9-1.6c0.4-0.5,0.9-0.9,1.5-1.2
		c0.6-0.3,1.3-0.5,2.1-0.5c1.4,0,2.3,0.3,2.8,0.8c0.5,0.5,0.8,1.2,0.8,2c0,0.4-0.1,0.9-0.3,1.5c-0.2,0.5-0.4,1-0.8,1.5
		s-0.8,0.8-1.4,1.1c-0.6,0.3-1.2,0.5-2,0.5c-1.5,0-2.5-0.2-3.1-0.7C84.9,32.6,84.5,32,84.5,31.2z"/>
	<path class="st0" d="M108.6,36c1.9,0,3.4,0.5,4.4,1.4c1,0.9,1.4,2.2,1.4,3.9c0,1-0.3,2-0.8,3.1c-0.5,1.1-1.4,2.2-2.7,3.3
		c-1.3,1.1-3,2.2-5.1,3.4c-2.1,1.2-4.8,2.3-8,3.5c0.1,0.7,0.5,1.2,1.1,1.6c0.6,0.4,1.4,0.6,2.4,0.6c1.1,0,2.2-0.2,3.5-0.5
		s2.4-0.7,3.7-1.2c1.2-0.5,2.4-1,3.5-1.6c1.1-0.6,2.2-1.1,3.1-1.6c0.9-0.5,1.7-1,2.3-1.3c0.6-0.4,1-0.6,1.2-0.7
		c0.2-0.1,0.4-0.2,0.6-0.2c0.2,0,0.3,0,0.5,0c0.3,0,0.5,0.1,0.7,0.2c0.2,0.1,0.3,0.3,0.5,0.5c0.1,0.2,0.2,0.4,0.3,0.6
		c0,0.2,0.1,0.4,0.1,0.5c0,0.2,0,0.5-0.1,0.8c0,0.3-0.2,0.6-0.5,1c-0.1,0.1-0.5,0.4-1.2,0.9c-0.7,0.5-1.5,1.1-2.6,1.8
		s-2.3,1.4-3.7,2.2c-1.4,0.8-2.9,1.5-4.4,2.2c-1.6,0.7-3.2,1.2-4.9,1.6s-3.4,0.7-5,0.7c-1.4,0-2.7-0.3-3.7-0.8s-2-1.3-2.8-2.2
		c-0.8-0.9-1.3-2-1.7-3.2c-0.4-1.2-0.6-2.4-0.6-3.8c0-1,0.2-2.1,0.6-3.3c0.4-1.2,1-2.4,1.7-3.6c0.8-1.2,1.7-2.4,2.8-3.6
		s2.3-2.2,3.7-3.1c1.4-0.9,2.9-1.6,4.5-2.1C105.1,36.3,106.8,36,108.6,36z M107.4,40.9c-0.1,0-0.2,0-0.3,0c-0.1,0-0.2,0-0.3,0
		c-0.9,0-1.7,0.2-2.5,0.5s-1.5,0.8-2.1,1.4c-0.6,0.6-1.2,1.2-1.7,2c-0.5,0.7-1,1.4-1.4,2.2c-0.4,0.7-0.7,1.4-1,2.1
		c-0.3,0.7-0.5,1.2-0.6,1.7c0.8-0.4,1.7-0.9,2.5-1.4c0.9-0.5,1.7-1.1,2.5-1.5s1.4-0.9,2-1.3c0.6-0.4,1-0.7,1.2-0.8
		c1.1-0.7,1.8-1.3,2.2-1.8c0.4-0.6,0.6-1.1,0.6-1.5c0-0.4-0.1-0.6-0.3-0.8C107.9,41.1,107.7,40.9,107.4,40.9z"/>
	<path class="st0" d="M119.3,44.4c0.7-1.6,1.3-2.9,1.8-3.9c0.5-1,0.9-1.8,1.3-2.3c0.4-0.6,0.8-0.9,1.2-1.1c0.4-0.2,0.9-0.3,1.5-0.3
		c0.9,0,1.7,0.3,2.3,0.9c0.6,0.6,1,1.3,1,2.2c0,0.2,0,0.4-0.1,0.6c-0.1,0.2-0.1,0.4-0.2,0.6l-6,14.1c-0.1,0.2-0.2,0.4-0.2,0.6
		c0,0.2-0.1,0.4-0.1,0.5c0,0.3,0.1,0.5,0.2,0.7c0.1,0.2,0.3,0.2,0.4,0.2c0.3,0,0.5-0.1,0.8-0.2c0.3-0.1,0.6-0.3,0.9-0.6
		c0.4-0.3,0.8-0.7,1.3-1.2c0.5-0.5,1.2-1.1,2-1.9c0.7-0.8,1.5-1.7,2.2-2.8s1.5-2.2,2.3-3.4c0.7-1.2,1.4-2.4,2.1-3.7s1.2-2.4,1.7-3.4
		c0.4-0.7,0.7-1.3,0.9-1.7c0.3-0.4,0.6-0.8,0.8-1c0.3-0.2,0.5-0.4,0.8-0.5c0.3-0.1,0.6-0.1,1-0.1c1.4,0,2.1,0.6,2.1,1.9
		c0,0.2-0.1,0.4-0.1,0.6c0,0.2-0.1,0.5-0.2,0.8l-5.5,16.2c0,0.6,0.3,0.9,0.9,0.9c0.4,0,1-0.3,1.7-0.7c0.7-0.4,1.4-0.9,2.1-1.5
		s1.4-1.3,2-2.1c0.6-0.8,1.1-1.6,1.3-2.4c0.5-1.5,1-3.1,1.6-4.7c0.5-1.6,1.1-3,1.7-4.3c0.6-1.3,1.2-2.3,1.9-3.2
		c0.7-0.8,1.5-1.3,2.3-1.4c0.8,0,1.4,0.2,1.8,0.7c0.5,0.5,0.7,1.1,0.7,1.9c0,0.9-0.1,1.9-0.4,3s-0.6,2.1-1,3.2
		c-0.4,1.1-0.9,2.1-1.4,3.1c-0.6,1-1.1,1.9-1.7,2.7c0.2,0.5,0.5,0.7,1,0.7c0.9,0,1.8-0.1,2.6-0.2s1.6-0.3,2.4-0.6
		c0.8-0.3,1.5-0.6,2.3-1c0.8-0.4,1.6-0.8,2.4-1.3c0.4-0.3,0.8-0.4,1.1-0.4c0.5,0,0.9,0.2,1.3,0.5c0.4,0.4,0.6,0.8,0.6,1.4
		c0,0.5-0.2,1-0.7,1.6c-0.5,0.5-1.1,1.1-1.8,1.6c-0.8,0.5-1.6,1-2.5,1.4c-0.9,0.4-1.9,0.8-2.9,1.2c-1,0.3-1.9,0.6-2.8,0.8
		c-0.9,0.2-1.7,0.3-2.4,0.3c-1.3,0-2.7-0.4-4-1.1c-1.6,2-3.3,3.5-5.1,4.5c-1.8,1-3.6,1.5-5.4,1.5c-1.7,0-2.9-0.4-3.6-1.3
		s-1.1-2.2-1.1-3.8c-1.8,1.8-3.4,3.1-4.9,3.9c-1.5,0.8-3.1,1.2-4.7,1.2c-1,0-1.9-0.1-2.6-0.4c-0.7-0.2-1.2-0.6-1.7-1
		c-0.4-0.4-0.7-1-0.9-1.6s-0.3-1.2-0.3-2c0-1.1,0.2-2.4,0.5-3.6c0.3-1.3,0.7-2.5,1.2-3.7s0.9-2.3,1.4-3.3S119,45.1,119.3,44.4z"/>
	<path class="st0" d="M210.6,9.2c0,0.7-0.1,1.6-0.4,2.7c-0.2,1.1-0.6,2.1-1,3.3c-0.4,1.1-1,2.3-1.6,3.4c-0.6,1.1-1.3,2.1-2.1,3
		c-0.8,0.9-1.7,1.6-2.6,2.2c-0.9,0.6-2,0.8-3,0.8c-0.2,0-0.6,0-1-0.1c-0.4,0-0.8-0.1-1.2-0.3c-0.4-0.2-0.7-0.4-1-0.7
		c-0.3-0.3-0.4-0.7-0.4-1.2c0-0.3,0.1-0.7,0.3-1.2c0.2-0.4,0.5-1,1-1.5c0.5-0.6,1-1.2,1.6-2c0.6-0.8,1.1-1.6,1.6-2.4
		c0.5-0.8,0.9-1.6,1.2-2.4c0.3-0.8,0.5-1.5,0.5-2.2c0-0.8-0.2-1.4-0.6-1.9c-0.4-0.5-1-0.7-1.9-0.7c-1.2,0-2.5,0.4-4,1.2
		c-1.5,0.8-3.1,1.8-4.7,3.2c-1.6,1.4-3.3,2.9-5,4.8c-1.7,1.8-3.3,3.8-4.9,5.8c-1.6,2.1-3.1,4.2-4.5,6.4c-1.4,2.2-2.6,4.4-3.7,6.6
		c-1,2.2-1.9,4.3-2.4,6.3c-0.6,2-0.9,3.8-0.9,5.5c0,2,0.5,3.6,1.6,4.9c1.1,1.2,2.9,1.8,5.4,1.8c1.2,0,2.9-0.4,5.2-1.3
		c2.3-0.9,4.2-1.8,5.7-2.7c1.5-0.9,3.1-1.9,4.6-3c1.6-1.1,3.1-2.1,4.5-3.2c1.4-1,2.7-1.9,3.9-2.7c1.2-0.8,2.1-1.4,2.9-1.7
		c0.1-0.1,0.3-0.2,0.5-0.2c0.4,0,0.7,0.3,0.9,1c0.2,0.7,0.2,1.4,0.2,2.3c0,0.5-0.1,1-0.2,1.7c-0.1,0.7-0.5,1.5-1.2,2.3
		c-0.3,0.4-0.9,1-1.7,1.8c-0.8,0.9-1.9,1.8-3.1,2.9s-2.7,2.2-4.3,3.4c-1.6,1.2-3.3,2.2-5.2,3.2c-1.9,1-4.3,1.9-7.2,2.9
		c-2.9,0.9-5.5,1.4-7.7,1.4c-2.6,0-4.8-0.3-6.6-0.9c-1.8-0.6-3.3-1.5-4.5-2.6c-1.2-1.1-2-2.4-2.6-4c-0.5-1.5-0.8-3.2-0.8-5
		c0-2.3,0.3-4.7,1-7.3c0.7-2.6,1.7-5.2,2.9-7.9c1.2-2.7,2.7-5.4,4.4-8.1c1.7-2.7,3.6-5.3,5.6-7.7c2-2.4,4.2-4.7,6.5-6.8
		c2.3-2.1,4.6-3.9,7.1-5.5c2.4-1.5,4.8-2.8,7.3-3.7c2.4-0.9,4.8-1.3,7.2-1.3c1.2,0,2.3,0.1,3.3,0.4c1.1,0.3,2,0.7,2.8,1.3
		c0.8,0.6,1.4,1.3,1.9,2.3C210.3,6.6,210.6,7.8,210.6,9.2z"/>
	<path class="st0" d="M238.2,53.2c-1,1.2-2.2,2.3-3.6,3.4c-1.4,1.1-2.8,2.1-4.2,3c-1.5,0.9-2.9,1.6-4.3,2.1s-2.7,0.8-3.8,0.8
		s-2-0.3-2.7-0.9s-1.1-1.7-1.1-3.2c0-1.1,0.2-2.3,0.6-3.8c-0.6,0.9-1.4,1.8-2.3,2.8c-0.9,0.9-2,1.8-3.1,2.6
		c-1.2,0.8-2.5,1.4-3.9,1.9c-1.5,0.5-3,0.7-4.7,0.7c-0.8,0-1.5-0.1-2.2-0.2c-0.7-0.2-1.3-0.4-1.9-0.8c-0.5-0.4-1-0.9-1.3-1.6
		c-0.3-0.7-0.5-1.5-0.5-2.5c0,0,0-0.4,0.1-1.1c0.1-0.7,0.4-1.8,0.9-3.3c0.5-1.5,1.3-3.4,2.3-5.8c1.1-2.4,2.5-5.2,4.5-8.6
		c0.5-0.9,1.1-1.5,1.7-1.9c0.6-0.4,1.3-0.6,2.1-0.6c0.3,0,0.7,0,1,0.1c0.4,0.1,0.7,0.2,1,0.4c0.3,0.2,0.6,0.4,0.7,0.7
		c0.2,0.3,0.3,0.6,0.3,0.9c0,0.2,0,0.5-0.1,0.7c-0.1,0.4-0.4,0.9-0.8,1.6c-0.4,0.6-0.8,1.4-1.4,2.2c-0.5,0.8-1.1,1.7-1.6,2.7
		c-0.6,1-1.1,2-1.6,3c-0.5,1-0.9,2.1-1.3,3.1c-0.4,1.1-0.6,2.1-0.6,3.1c0,0.4,0.1,0.8,0.4,1.2c0.2,0.4,0.6,0.5,1.2,0.5
		c1.5,0,3-0.4,4.4-1.3c1.4-0.8,2.7-1.9,3.8-3.1c1.2-1.3,2.2-2.6,3.2-4s1.7-2.8,2.4-4c0.4-0.8,0.8-1.7,1.2-2.6
		c0.3-0.9,0.7-1.8,1.1-2.5c0.4-0.8,0.9-1.4,1.4-1.9c0.5-0.5,1.2-0.8,1.9-0.8c0.8,0,1.5,0.3,2,0.8c0.5,0.5,0.7,1.2,0.7,1.9
		c0,0.4-0.2,1-0.5,1.7s-0.7,1.6-1.2,2.5c-0.5,0.9-1,2-1.6,3c-0.6,1.1-1.1,2.2-1.6,3.3c-0.5,1.1-0.9,2.2-1.2,3.3
		c-0.3,1.1-0.5,2.1-0.5,3c0,0.8,0.5,1.3,1.5,1.3c0.7,0,1.6-0.2,2.7-0.6c1.1-0.4,2.2-1,3.4-1.8c1.2-0.8,2.4-1.7,3.6-2.7
		c1.2-1,2.2-2.1,3.1-3.3L238.2,53.2z"/>
	<path class="st0" d="M249.2,36c1.9,0,3.4,0.5,4.4,1.4c1,0.9,1.4,2.2,1.4,3.9c0,1-0.3,2-0.8,3.1c-0.5,1.1-1.4,2.2-2.7,3.3
		c-1.3,1.1-3,2.2-5.1,3.4c-2.1,1.2-4.8,2.3-8,3.5c0.1,0.7,0.5,1.2,1.1,1.6c0.6,0.4,1.4,0.6,2.4,0.6c1.1,0,2.2-0.2,3.5-0.5
		s2.4-0.7,3.7-1.2c1.2-0.5,2.4-1,3.5-1.6c1.1-0.6,2.2-1.1,3.1-1.6c0.9-0.5,1.7-1,2.3-1.3c0.6-0.4,1-0.6,1.2-0.7
		c0.2-0.1,0.4-0.2,0.6-0.2c0.2,0,0.3,0,0.5,0c0.3,0,0.5,0.1,0.7,0.2c0.2,0.1,0.3,0.3,0.5,0.5c0.1,0.2,0.2,0.4,0.3,0.6
		c0,0.2,0.1,0.4,0.1,0.5c0,0.2,0,0.5-0.1,0.8c0,0.3-0.2,0.6-0.5,1c-0.1,0.1-0.5,0.4-1.2,0.9c-0.7,0.5-1.5,1.1-2.6,1.8
		s-2.3,1.4-3.7,2.2c-1.4,0.8-2.9,1.5-4.4,2.2c-1.6,0.7-3.2,1.2-4.9,1.6s-3.4,0.7-5,0.7c-1.4,0-2.7-0.3-3.7-0.8s-2-1.3-2.8-2.2
		c-0.8-0.9-1.3-2-1.7-3.2c-0.4-1.2-0.6-2.4-0.6-3.8c0-1,0.2-2.1,0.6-3.3c0.4-1.2,1-2.4,1.7-3.6c0.8-1.2,1.7-2.4,2.8-3.6
		s2.3-2.2,3.7-3.1c1.4-0.9,2.9-1.6,4.5-2.1C245.6,36.3,247.3,36,249.2,36z M247.9,40.9c-0.1,0-0.2,0-0.3,0c-0.1,0-0.2,0-0.3,0
		c-0.9,0-1.7,0.2-2.5,0.5s-1.5,0.8-2.1,1.4c-0.6,0.6-1.2,1.2-1.7,2c-0.5,0.7-1,1.4-1.4,2.2c-0.4,0.7-0.7,1.4-1,2.1
		c-0.3,0.7-0.5,1.2-0.6,1.7c0.8-0.4,1.7-0.9,2.5-1.4c0.9-0.5,1.7-1.1,2.5-1.5s1.4-0.9,2-1.3c0.6-0.4,1-0.7,1.2-0.8
		c1.1-0.7,1.8-1.3,2.2-1.8c0.4-0.6,0.6-1.1,0.6-1.5c0-0.4-0.1-0.6-0.3-0.8C248.5,41.1,248.2,40.9,247.9,40.9z"/>
</g>
<g>
	<path class="st0" d="M22.5,6.3c0,0.2-0.1,0.4-0.2,0.8c-0.1,0.3-0.3,0.6-0.6,1c-0.2,0.3-0.5,0.6-0.9,0.8c-0.3,0.2-0.7,0.3-1.2,0.3
		c-0.1,0-0.2,0-0.4,0c-0.2,0-0.3-0.1-0.4-0.1c-0.1-0.1-0.3-0.1-0.4-0.3c-0.1-0.1-0.2-0.3-0.2-0.4c0-0.1,0-0.2,0.1-0.4
		c0.1-0.2,0.2-0.3,0.3-0.5c0.1-0.2,0.2-0.4,0.3-0.6s0.1-0.3,0.1-0.5c0-0.3-0.2-0.6-0.7-0.7C18,5.5,17.2,5.4,16,5.4
		c-1.1,0-2.2,0.1-3.1,0.2C12,5.7,11.2,5.9,10.4,6C9.6,6.2,8.9,6.3,8.2,6.5c-0.7,0.2-1.3,0.4-2,0.6c-0.7,0.2-1.3,0.4-2,0.7
		C3.6,8.1,2.8,8.3,2.1,8.6C2,8.6,2,8.6,1.9,8.6c-0.1,0-0.1,0-0.2,0c-0.2,0-0.3,0-0.4-0.1C1.1,8.5,1,8.4,0.9,8.3
		C0.8,8.2,0.8,8,0.7,7.9C0.7,7.7,0.6,7.6,0.6,7.4c0-0.3,0.2-0.6,0.6-0.9c0.4-0.3,1-0.7,1.7-1c0.7-0.3,1.6-0.7,2.6-1
		c1-0.3,2.1-0.6,3.2-0.8c1.2-0.2,2.4-0.4,3.6-0.6C13.7,3,15,2.9,16.2,2.9c1.1,0,2,0.1,2.8,0.3c0.8,0.2,1.4,0.4,2,0.7
		s0.9,0.7,1.2,1.1C22.4,5.4,22.5,5.8,22.5,6.3z M4.8,24c-0.2,0.3-0.3,0.6-0.5,0.8s-0.4,0.4-0.7,0.6s-0.5,0.3-0.7,0.3
		c-0.3,0.1-0.5,0.1-0.7,0.1c-0.3,0-0.6-0.1-0.8-0.2C1.1,25.4,1,25.2,1,24.9c0-0.1,0-0.2,0-0.4c0-0.1,0.1-0.3,0.2-0.4
		c0.8-1.6,1.5-3.1,2.3-4.6C4.2,18,5,16.6,5.7,15.4c0.7-1.3,1.4-2.4,2-3.5c0.6-1,1.2-1.9,1.7-2.7c0.5-0.7,1-1.3,1.3-1.7
		c0.4-0.4,0.6-0.6,0.8-0.6c0.4,0,0.6,0.1,0.8,0.3c0.2,0.2,0.3,0.4,0.3,0.7c0,0.2-0.1,0.4-0.2,0.7c-0.3,0.5-0.5,1.1-0.9,1.7
		c-0.3,0.7-0.7,1.3-1,2.1c-0.4,0.7-0.7,1.5-1.1,2.3c-0.4,0.8-0.8,1.6-1.1,2.3c-0.4,0.8-0.7,1.5-1.1,2.2c-0.4,0.7-0.7,1.4-1,2
		c-0.3,0.6-0.6,1.2-0.8,1.6C5.2,23.4,5,23.7,4.8,24z"/>
	<path class="st0" d="M12.3,22.3c0.2-0.5,0.5-1.1,0.8-1.7c0.3-0.6,0.6-1.3,0.9-1.9c0.3-0.6,0.6-1.2,0.9-1.8c0.3-0.6,0.5-1,0.7-1.4
		l5-9.8c0.1-0.1,0.2-0.3,0.3-0.4c0.1-0.1,0.3-0.2,0.4-0.3c0.2-0.1,0.3-0.2,0.5-0.2c0.2-0.1,0.4-0.1,0.5-0.1c0.4,0,0.8,0.1,0.9,0.2
		c0.2,0.2,0.3,0.4,0.3,0.6c0,0.2-0.1,0.5-0.2,0.7c-0.1,0.2-0.2,0.5-0.4,0.7c-0.4,0.8-0.9,1.5-1.3,2.3c-0.4,0.8-0.8,1.5-1.2,2.3
		c-0.4,0.8-0.8,1.6-1.2,2.3c-0.4,0.8-0.8,1.5-1.3,2.3c0.3-0.3,0.6-0.6,0.9-0.8c0.3-0.3,0.7-0.6,1-0.8c0.4-0.2,0.8-0.4,1.2-0.6
		c0.4-0.2,0.9-0.2,1.5-0.2c0.3,0,0.6,0,0.9,0.1c0.3,0.1,0.5,0.2,0.8,0.3c0.2,0.1,0.4,0.3,0.5,0.6c0.1,0.2,0.2,0.5,0.2,0.9
		c0,0.5-0.1,0.9-0.2,1.2c-0.1,0.4-0.3,0.7-0.5,1.1c-0.2,0.3-0.4,0.7-0.7,1c-0.3,0.3-0.5,0.6-0.7,0.9c-0.2,0.3-0.4,0.6-0.6,1
		c-0.2,0.3-0.3,0.7-0.3,1.1c0,0,0,0,0,0.1c0,0,0,0,0,0.1c0,0.2,0.1,0.3,0.2,0.4c0.1,0.1,0.3,0.1,0.5,0.1c0.3,0,0.6-0.1,0.9-0.2
		c0.3-0.1,0.6-0.2,0.9-0.4c0.3-0.2,0.6-0.4,1-0.6c0.3-0.2,0.6-0.4,0.9-0.7c0.3-0.2,0.6-0.5,0.8-0.7c0.2-0.2,0.4-0.4,0.6-0.6
		c0.1-0.1,0.2-0.1,0.3-0.2c0.1,0,0.2-0.1,0.3-0.1c0.2,0,0.3,0.1,0.5,0.2c0.1,0.1,0.2,0.3,0.2,0.6c0,0.2-0.1,0.5-0.2,0.7
		c-0.1,0.3-0.4,0.5-0.7,0.8c-0.6,0.5-1.1,0.9-1.7,1.4c-0.6,0.4-1.2,0.8-1.7,1.2c-0.6,0.3-1.2,0.6-1.7,0.8c-0.6,0.2-1.1,0.3-1.7,0.3
		c-0.7,0-1.3-0.2-1.7-0.5c-0.4-0.3-0.7-0.8-0.7-1.6c0-0.5,0.1-1,0.3-1.5c0.2-0.5,0.4-0.9,0.7-1.3c0.3-0.4,0.5-0.8,0.8-1.2
		c0.3-0.4,0.5-0.8,0.8-1.2c0.1-0.2,0.2-0.3,0.3-0.5c0.1-0.1,0.1-0.3,0.1-0.5c0-0.2,0-0.3-0.1-0.4c-0.1-0.1-0.2-0.1-0.4-0.1
		c-0.6,0-1.1,0.1-1.6,0.4c-0.5,0.3-1,0.7-1.4,1.1s-0.8,1-1.2,1.5c-0.4,0.5-0.7,1.1-1,1.6c-0.1,0.2-0.3,0.5-0.4,0.8
		c-0.1,0.3-0.3,0.6-0.5,0.9c-0.2,0.3-0.3,0.6-0.5,0.9c-0.2,0.3-0.4,0.6-0.5,0.8c-0.2,0.2-0.4,0.4-0.6,0.6c-0.2,0.1-0.4,0.2-0.6,0.2
		c-0.4,0-0.6-0.1-0.8-0.3c-0.2-0.2-0.3-0.5-0.3-0.8c0-0.2,0-0.5,0.1-0.7C12,23,12.1,22.7,12.3,22.3z"/>
	<path class="st0" d="M34.2,13.7c0.8,0,1.5,0.2,1.9,0.6c0.4,0.4,0.6,1,0.6,1.7c0,0.4-0.1,0.9-0.3,1.3c-0.2,0.5-0.6,0.9-1.2,1.4
		c-0.5,0.5-1.3,1-2.2,1.5c-0.9,0.5-2.1,1-3.4,1.5c0.1,0.3,0.2,0.5,0.5,0.7c0.3,0.2,0.6,0.2,1,0.2c0.5,0,1-0.1,1.5-0.2
		c0.5-0.1,1.1-0.3,1.6-0.5c0.5-0.2,1-0.4,1.5-0.7c0.5-0.2,0.9-0.5,1.3-0.7c0.4-0.2,0.7-0.4,1-0.6c0.3-0.2,0.4-0.3,0.5-0.3
		c0.1-0.1,0.2-0.1,0.2-0.1c0.1,0,0.1,0,0.2,0c0.1,0,0.2,0,0.3,0.1c0.1,0.1,0.1,0.1,0.2,0.2c0.1,0.1,0.1,0.2,0.1,0.2
		c0,0.1,0,0.2,0,0.2c0,0.1,0,0.2,0,0.3c0,0.1-0.1,0.3-0.2,0.4c-0.1,0.1-0.2,0.2-0.5,0.4c-0.3,0.2-0.7,0.5-1.1,0.8s-1,0.6-1.6,1
		c-0.6,0.3-1.2,0.6-1.9,0.9c-0.7,0.3-1.4,0.5-2.1,0.7c-0.7,0.2-1.4,0.3-2.1,0.3c-0.6,0-1.1-0.1-1.6-0.3c-0.5-0.2-0.9-0.5-1.2-0.9
		c-0.3-0.4-0.6-0.8-0.7-1.4c-0.2-0.5-0.3-1.1-0.3-1.6c0-0.4,0.1-0.9,0.3-1.4c0.2-0.5,0.4-1,0.7-1.6c0.3-0.5,0.7-1,1.2-1.5
		c0.5-0.5,1-0.9,1.6-1.3c0.6-0.4,1.2-0.7,1.9-0.9C32.6,13.8,33.4,13.7,34.2,13.7z M33.6,15.8c-0.1,0-0.1,0-0.1,0c0,0-0.1,0-0.1,0
		c-0.4,0-0.7,0.1-1.1,0.2s-0.6,0.4-0.9,0.6c-0.3,0.2-0.5,0.5-0.7,0.8c-0.2,0.3-0.4,0.6-0.6,0.9c-0.2,0.3-0.3,0.6-0.4,0.9
		c-0.1,0.3-0.2,0.5-0.3,0.7c0.4-0.2,0.7-0.4,1.1-0.6c0.4-0.2,0.7-0.5,1.1-0.7s0.6-0.4,0.9-0.6c0.2-0.2,0.4-0.3,0.5-0.3
		c0.5-0.3,0.8-0.5,0.9-0.8c0.2-0.2,0.3-0.5,0.3-0.6c0-0.2,0-0.3-0.1-0.4C33.8,15.9,33.7,15.8,33.6,15.8z"/>
</g>
</svg>
